module event

go 1.21.1

require (
	github.com/aws/aws-sdk-go v1.48.1
	github.com/aws/aws-sdk-go-v2 v1.22.2
	github.com/aws/aws-sdk-go-v2/config v1.19.1
	github.com/aws/aws-sdk-go-v2/service/s3 v1.42.1
	github.com/aws/aws-sdk-go-v2/service/sqs v1.24.7
	github.com/gin-gonic/gin v1.9.1
	github.com/go-flac/go-flac v1.0.0
	github.com/joho/godotenv v1.5.1
	github.com/kelseyhightower/envconfig v1.4.0
	github.com/rabbitmq/amqp091-go v1.9.0
	github.com/u2takey/ffmpeg-go v0.5.0
	gitlab.com/tuneverse/toolkit v0.9.3
)

require (
	github.com/aws/aws-sdk-go-v2/aws/protocol/eventstream v1.5.0 // indirect
	github.com/aws/aws-sdk-go-v2/credentials v1.13.43 // indirect
	github.com/aws/aws-sdk-go-v2/feature/ec2/imds v1.13.13 // indirect
	github.com/aws/aws-sdk-go-v2/feature/s3/manager v1.11.92 // indirect
	github.com/aws/aws-sdk-go-v2/internal/configsources v1.2.2 // indirect
	github.com/aws/aws-sdk-go-v2/internal/endpoints/v2 v2.5.2 // indirect
	github.com/aws/aws-sdk-go-v2/internal/ini v1.3.45 // indirect
	github.com/aws/aws-sdk-go-v2/internal/v4a v1.2.2 // indirect
	github.com/aws/aws-sdk-go-v2/service/internal/accept-encoding v1.10.0 // indirect
	github.com/aws/aws-sdk-go-v2/service/internal/checksum v1.2.2 // indirect
	github.com/aws/aws-sdk-go-v2/service/internal/presigned-url v1.10.2 // indirect
	github.com/aws/aws-sdk-go-v2/service/internal/s3shared v1.16.2 // indirect
	github.com/aws/aws-sdk-go-v2/service/sso v1.15.2 // indirect
	github.com/aws/aws-sdk-go-v2/service/ssooidc v1.17.3 // indirect
	github.com/aws/aws-sdk-go-v2/service/sts v1.23.2 // indirect
	github.com/aws/smithy-go v1.16.0 // indirect
	github.com/bytedance/sonic v1.10.2 // indirect
	github.com/chenzhuoyu/base64x v0.0.0-20230717121745-296ad89f973d // indirect
	github.com/chenzhuoyu/iasm v0.9.0 // indirect
	github.com/dgrijalva/jwt-go v3.2.0+incompatible // indirect
	github.com/gabriel-vasile/mimetype v1.4.3 // indirect
	github.com/gin-contrib/sse v0.1.0 // indirect
	github.com/go-playground/locales v0.14.1 // indirect
	github.com/go-playground/universal-translator v0.18.1 // indirect
	github.com/go-playground/validator/v10 v10.15.5 // indirect
	github.com/goccy/go-json v0.10.2 // indirect
	github.com/golang/protobuf v1.5.0 // indirect
	github.com/google/go-cmp v0.5.9 // indirect
	github.com/google/uuid v1.3.1 // indirect
	github.com/jmespath/go-jmespath v0.4.0 // indirect
	github.com/json-iterator/go v1.1.12 // indirect
	github.com/klauspost/cpuid/v2 v2.2.5 // indirect
	github.com/kr/pretty v0.3.0 // indirect
	github.com/leodido/go-urn v1.2.4 // indirect
	github.com/mattn/go-isatty v0.0.20 // indirect
	github.com/modern-go/concurrent v0.0.0-20180306012644-bacd9c7ef1dd // indirect
	github.com/modern-go/reflect2 v1.0.2 // indirect
	github.com/pelletier/go-toml/v2 v2.1.0 // indirect
	github.com/rogpeppe/go-internal v1.8.0 // indirect
	github.com/sirupsen/logrus v1.9.3 // indirect
	github.com/ttacon/builder v0.0.0-20170518171403-c099f663e1c2 // indirect
	github.com/ttacon/libphonenumber v1.2.1 // indirect
	github.com/twitchyliquid64/golang-asm v0.15.1 // indirect
	github.com/u2takey/go-utils v0.3.1 // indirect
	github.com/ugorji/go/codec v1.2.11 // indirect
	go.mongodb.org/mongo-driver v1.12.1 // indirect
	golang.org/x/arch v0.5.0 // indirect
	golang.org/x/crypto v0.14.0 // indirect
	golang.org/x/net v0.17.0 // indirect
	golang.org/x/sys v0.13.0 // indirect
	golang.org/x/text v0.13.0 // indirect
	google.golang.org/protobuf v1.31.0 // indirect
	gopkg.in/check.v1 v1.0.0-20201130134442-10cb98267c6c // indirect
	gopkg.in/natefinch/lumberjack.v1 v1.0.0-20140618183000-8ec9c6b748e0 // indirect
	gopkg.in/yaml.v2 v2.4.0 // indirect
	gopkg.in/yaml.v3 v3.0.1 // indirect
)
